{
	"info": {
		"_postman_id": "3484260b-4163-42e9-a913-00bb9ccd6584",
		"name": "Saf",
		"description": "Simple as F*ck Web Application",
		"schema": "https://schema.getpostman.com/json/collection/v2.1.0/collection.json"
	},
	"item": [
		{
			"name": "Account",
			"description": "",
			"item": [
				{
					"name": "Show Current User",
					"request": {
						"method": "GET",
						"header": [
							{
								"key": "Accept",
								"value": "application/json"
							}
						],
						"body": {},
						"url": {
							"raw": "{{API_URL}}/account",
							"host": [
								"{{API_URL}}"
							],
							"path": [
								"account"
							]
						},
						"description": "Show Current Authenticated User"
					},
					"response": []
				},
				{
					"name": "Update Current User",
					"request": {
						"method": "PUT",
						"header": [
							{
								"key": "Accept",
								"value": "application/json"
							}
						],
						"body": {},
						"url": {
							"raw": "{{API_URL}}/account",
							"host": [
								"{{API_URL}}"
							],
							"path": [
								"account"
							]
						},
						"description": "Update Current User data"
					},
					"response": []
				},
				{
					"name": "Login",
					"request": {
						"auth": {
							"type": "noauth"
						},
						"method": "POST",
						"header": [
							{
								"key": "Accept",
								"value": "application/json"
							}
						],
						"body": {
							"mode": "formdata",
							"formdata": [
								{
									"key": "username",
									"value": "{{AUTH_USER}}",
									"description": "",
									"type": "text"
								},
								{
									"key": "password",
									"value": "{{AUTH_PASS}}",
									"description": "",
									"type": "text"
								}
							]
						},
						"url": {
							"raw": "{{API_URL}}/account/login",
							"host": [
								"{{API_URL}}"
							],
							"path": [
								"account",
								"login"
							]
						},
						"description": "Send login request"
					},
					"response": []
				},
				{
					"name": "Register",
					"request": {
						"auth": {
							"type": "noauth"
						},
						"method": "POST",
						"header": [
							{
								"key": "Accept",
								"value": "application/json"
							}
						],
						"body": {
							"mode": "formdata",
							"formdata": [
								{
									"key": "username",
									"value": "John",
									"description": "",
									"type": "text"
								},
								{
									"key": "email",
									"value": "john@example.me",
									"description": "",
									"type": "text"
								},
								{
									"key": "password",
									"value": "secret",
									"description": "",
									"type": "text"
								},
								{
									"key": "password_confirmation",
									"value": "secret",
									"description": "",
									"type": "text"
								}
							]
						},
						"url": {
							"raw": "{{API_URL}}/account/register",
							"host": [
								"{{API_URL}}"
							],
							"path": [
								"account",
								"register"
							]
						},
						"description": "Register new user"
					},
					"response": []
				},
				{
					"name": "Logout",
					"request": {
						"method": "POST",
						"header": [
							{
								"key": "Accept",
								"value": "application/json"
							}
						],
						"body": {},
						"url": {
							"raw": "{{API_URL}}/account/logout",
							"host": [
								"{{API_URL}}"
							],
							"path": [
								"account",
								"logout"
							]
						},
						"description": "Logout Current User"
					},
					"response": []
				},
				{
					"name": "Forgot Password",
					"request": {
						"auth": {
							"type": "noauth"
						},
						"method": "POST",
						"header": [
							{
								"key": "Accept",
								"value": "application/json"
							}
						],
						"body": {},
						"url": {
							"raw": "{{API_URL}}/account/forgot",
							"host": [
								"{{API_URL}}"
							],
							"path": [
								"account",
								"forgot"
							]
						},
						"description": "Request forgot password"
					},
					"response": []
				},
				{
					"name": "Confirm Request",
					"request": {
						"auth": {
							"type": "noauth"
						},
						"method": "GET",
						"header": [
							{
								"key": "Accept",
								"value": "application/json"
							}
						],
						"body": {},
						"url": {
							"raw": "{{API_URL}}/account/confirm/activation/c40e0502987af6ebd9f7192f70662a0eZszgG59yTftblTe5SBEkog%3D%3D",
							"host": [
								"{{API_URL}}"
							],
							"path": [
								"account",
								"confirm",
								"activation",
								"c40e0502987af6ebd9f7192f70662a0eZszgG59yTftblTe5SBEkog%3D%3D"
							]
						},
						"description": "Confirm previous request."
					},
					"response": []
				}
			]
		},
		{
			"name": "Settings",
			"description": "Application Setting End-points",
			"item": [
				{
					"name": "Fetch",
					"request": {
						"method": "GET",
						"header": [],
						"body": {},
						"url": {
							"raw": "{{API_URL}}/settings",
							"host": [
								"{{API_URL}}"
							],
							"path": [
								"settings"
							]
						},
						"description": "Show all defined application settings"
					},
					"response": []
				},
				{
					"name": "Update",
					"request": {
						"method": "PUT",
						"header": [],
						"body": {},
						"url": {
							"raw": "{{API_URL}}/settings",
							"host": [
								"{{API_URL}}"
							],
							"path": [
								"settings"
							]
						},
						"description": "Update specific setting"
					},
					"response": []
				}
			]
		},
		{
			"name": "Users",
			"description": "Application Setting End-points",
			"item": [
				{
					"name": "Fetch",
					"request": {
						"method": "GET",
						"header": [],
						"body": {},
						"url": {
							"raw": "{{API_URL}}/users",
							"host": [
								"{{API_URL}}"
							],
							"path": [
								"users"
							]
						},
						"description": "Show all users"
					},
					"response": []
				},
				{
					"name": "Create",
					"request": {
						"method": "POST",
						"header": [],
						"body": {},
						"url": {
							"raw": "{{API_URL}}/users",
							"host": [
								"{{API_URL}}"
							],
							"path": [
								"users"
							]
						},
						"description": "Create new User"
					},
					"response": []
				},
				{
					"name": "Show",
					"request": {
						"method": "GET",
						"header": [],
						"body": {},
						"url": {
							"raw": "{{API_URL}}/users/1",
							"host": [
								"{{API_URL}}"
							],
							"path": [
								"users",
								"1"
							]
						},
						"description": "Show specific user"
					},
					"response": []
				},
				{
					"name": "Update",
					"request": {
						"method": "PUT",
						"header": [],
						"body": {},
						"url": {
							"raw": "{{API_URL}}/users/1",
							"host": [
								"{{API_URL}}"
							],
							"path": [
								"users",
								"1"
							]
						},
						"description": "Show specific user"
					},
					"response": []
				},
				{
					"name": "Delete",
					"request": {
						"method": "DELETE",
						"header": [],
						"body": {},
						"url": {
							"raw": "{{API_URL}}/users/2",
							"host": [
								"{{API_URL}}"
							],
							"path": [
								"users",
								"2"
							]
						},
						"description": "Show specific user"
					},
					"response": []
				}
			]
		},
		{
			"name": "Roles",
			"description": "Application Setting End-points",
			"item": [
				{
					"name": "Fetch",
					"request": {
						"method": "GET",
						"header": [],
						"body": {},
						"url": {
							"raw": "{{API_URL}}/roles?includes[]=users",
							"host": [
								"{{API_URL}}"
							],
							"path": [
								"roles"
							],
							"query": [
								{
									"key": "includes[]",
									"value": "users"
								}
							]
						},
						"description": "Show all users"
					},
					"response": []
				},
				{
					"name": "Create",
					"request": {
						"method": "POST",
						"header": [],
						"body": {},
						"url": {
							"raw": "{{API_URL}}/roles",
							"host": [
								"{{API_URL}}"
							],
							"path": [
								"roles"
							]
						},
						"description": "Create new User"
					},
					"response": []
				},
				{
					"name": "Show",
					"request": {
						"method": "GET",
						"header": [],
						"body": {},
						"url": {
							"raw": "{{API_URL}}/roles/1",
							"host": [
								"{{API_URL}}"
							],
							"path": [
								"roles",
								"1"
							]
						},
						"description": "Show specific user"
					},
					"response": []
				},
				{
					"name": "Update",
					"request": {
						"method": "PUT",
						"header": [],
						"body": {},
						"url": {
							"raw": "{{API_URL}}/roles/1",
							"host": [
								"{{API_URL}}"
							],
							"path": [
								"roles",
								"1"
							]
						},
						"description": "Show specific user"
					},
					"response": []
				},
				{
					"name": "Delete",
					"request": {
						"method": "DELETE",
						"header": [],
						"body": {},
						"url": {
							"raw": "{{API_URL}}/roles/1",
							"host": [
								"{{API_URL}}"
							],
							"path": [
								"roles",
								"1"
							]
						},
						"description": "Show specific user"
					},
					"response": []
				}
			]
		},
		{
			"name": "Permissions",
			"description": "Application Setting End-points",
			"item": [
				{
					"name": "Fetch",
					"request": {
						"method": "GET",
						"header": [],
						"body": {},
						"url": {
							"raw": "{{API_URL}}/permissions",
							"host": [
								"{{API_URL}}"
							],
							"path": [
								"permissions"
							]
						},
						"description": "Show all users"
					},
					"response": []
				},
				{
					"name": "Create",
					"request": {
						"method": "POST",
						"header": [],
						"body": {},
						"url": {
							"raw": "{{API_URL}}/permissions",
							"host": [
								"{{API_URL}}"
							],
							"path": [
								"permissions"
							]
						},
						"description": "Create new User"
					},
					"response": []
				},
				{
					"name": "Show",
					"request": {
						"method": "GET",
						"header": [],
						"body": {},
						"url": {
							"raw": "{{API_URL}}/permissions/1",
							"host": [
								"{{API_URL}}"
							],
							"path": [
								"permissions",
								"1"
							]
						},
						"description": "Show specific user"
					},
					"response": []
				},
				{
					"name": "Update",
					"request": {
						"method": "PUT",
						"header": [],
						"body": {},
						"url": {
							"raw": "{{API_URL}}/permissions/1",
							"host": [
								"{{API_URL}}"
							],
							"path": [
								"permissions",
								"1"
							]
						},
						"description": "Show specific user"
					},
					"response": []
				},
				{
					"name": "Delete",
					"request": {
						"method": "DELETE",
						"header": [],
						"body": {},
						"url": {
							"raw": "{{API_URL}}/permissions/1",
							"host": [
								"{{API_URL}}"
							],
							"path": [
								"permissions",
								"1"
							]
						},
						"description": "Show specific user"
					},
					"response": []
				}
			]
		},
		{
			"name": "People",
			"description": "Application Setting End-points",
			"item": [
				{
					"name": "Fetch",
					"request": {
						"method": "GET",
						"header": [],
						"body": {},
						"url": {
							"raw": "{{API_URL}}/people",
							"host": [
								"{{API_URL}}"
							],
							"path": [
								"people"
							]
						},
						"description": "Show all users"
					},
					"response": []
				},
				{
					"name": "Create",
					"request": {
						"method": "POST",
						"header": [],
						"body": {},
						"url": {
							"raw": "{{API_URL}}/people",
							"host": [
								"{{API_URL}}"
							],
							"path": [
								"people"
							]
						},
						"description": "Create new User"
					},
					"response": []
				},
				{
					"name": "Show",
					"request": {
						"method": "GET",
						"header": [],
						"body": {},
						"url": {
							"raw": "{{API_URL}}/people/1",
							"host": [
								"{{API_URL}}"
							],
							"path": [
								"people",
								"1"
							]
						},
						"description": "Show specific user"
					},
					"response": []
				},
				{
					"name": "Update",
					"request": {
						"method": "PUT",
						"header": [],
						"body": {},
						"url": {
							"raw": "{{API_URL}}/people/1",
							"host": [
								"{{API_URL}}"
							],
							"path": [
								"people",
								"1"
							]
						},
						"description": "Show specific user"
					},
					"response": []
				},
				{
					"name": "Delete",
					"request": {
						"method": "DELETE",
						"header": [],
						"body": {},
						"url": {
							"raw": "{{API_URL}}/people/1",
							"host": [
								"{{API_URL}}"
							],
							"path": [
								"people",
								"1"
							]
						},
						"description": "Show specific user"
					},
					"response": []
				}
			],
			"event": [
				{
					"listen": "prerequest",
					"script": {
						"id": "3f88b505-dad9-41f3-a831-44342c9d1ea4",
						"type": "text/javascript",
						"exec": [
							""
						]
					}
				},
				{
					"listen": "test",
					"script": {
						"id": "3a68095b-f5b5-47f2-91bc-c9a64ded0d2f",
						"type": "text/javascript",
						"exec": [
							""
						]
					}
				}
			]
		}
	],
	"auth": {
		"type": "bearer",
		"bearer": [
			{
				"key": "token",
				"value": "{{API_TOKEN}}",
				"type": "string"
			}
		]
	},
	"event": [
		{
			"listen": "prerequest",
			"script": {
				"id": "51018cee-3c43-477d-aa84-9f6e06e21007",
				"type": "text/javascript",
				"exec": [
					""
				]
			}
		},
		{
			"listen": "test",
			"script": {
				"id": "0a2f9226-31a1-4ad6-a784-8665097efe74",
				"type": "text/javascript",
				"exec": [
					""
				]
			}
		}
	],
	"variable": [
		{
			"id": "f25c4917-f9ef-4de9-a75b-73ae23c55454",
			"key": "API_URL",
			"value": "{{APP_URL}}",
			"type": "string",
			"description": ""
		},
		{
			"id": "cede7e71-bc78-43a7-a34d-837a97dc1941",
			"key": "AUTH_USER",
			"value": "admin",
			"type": "string",
			"description": ""
		},
		{
			"id": "96b142bc-2a22-4477-aa65-dbb675fe3f16",
			"key": "AUTH_PASS",
			"value": "secret",
			"type": "string",
			"description": ""
		}
	]
}